{
    "server": {
        "port": 2018,
        "api": "/api/"
    },
    "database": {
        "host": "beaglebone.local",
        "user": "root",
        "password": "towmater",
        "database": "Murdock",
        "port": 3306
    }
}